…
``` r
## NOTE: No need to edit! We'll cover how to
## do this calculation in a later exercise.
df_prop <-
  df_titanic %>%
  group_by(Class, Sex, Age) %>%
  mutate(
    Total = sum(n),
    Prop = n / Total
  ) %>%
  ungroup()
df_prop
```

    ## # A tibble: 32 × 7
    ##    Class Sex    Age   Survived     n Total    Prop
    ##    <chr> <chr>  <chr> <chr>    <dbl> <dbl>   <dbl>
    ##  1 1st   Male   Child No           0     5   0    
    ##  2 2nd   Male   Child No           0    11   0    
    ##  3 3rd   Male   Child No          35    48   0.729
    ##  4 Crew  Male   Child No           0     0 NaN    
    ##  5 1st   Female Child No           0     1   0    
    ##  6 2nd   Female Child No           0    13   0    
    ##  7 3rd   Female Child No          17    31   0.548
    ##  8 Crew  Female Child No           0     0 NaN    
    ##  9 1st   Male   Adult No         118   175   0.674
    ## 10 2nd   Male   Adult No         154   168   0.917
    ## # ℹ 22 more rows
…
``` r
df_prop2 <-
  df_titanic %>%
  select(Age, Survived, n)%>%
  group_by(Age) %>%
  mutate(
    Total2 = sum(n),
    Proportion = n / Total2
  ) %>%
  ungroup()
df_prop2
```

    ## # A tibble: 32 × 5
    ##    Age   Survived     n Total2 Proportion
    ##    <chr> <chr>    <dbl>  <dbl>      <dbl>
    ##  1 Child No           0    109     0     
    ##  2 Child No           0    109     0     
    ##  3 Child No          35    109     0.321 
    ##  4 Child No           0    109     0     
    ##  5 Child No           0    109     0     
    ##  6 Child No           0    109     0     
    ##  7 Child No          17    109     0.156 
    ##  8 Child No           0    109     0     
    ##  9 Adult No         118   2092     0.0564
    ## 10 Adult No         154   2092     0.0736
    ## # ℹ 22 more rows
…
``` r
df_prop3 <-
  df_titanic %>%
  select(Class, Survived, n)%>%
  group_by(Class) %>%
  mutate(
    Total3 = sum(n),
    Proportion = n / Total3
  ) %>%
  ungroup()
df_prop3
```

    ## # A tibble: 32 × 5
    ##    Class Survived     n Total3 Proportion
    ##    <chr> <chr>    <dbl>  <dbl>      <dbl>
    ##  1 1st   No           0    325     0     
    ##  2 2nd   No           0    285     0     
    ##  3 3rd   No          35    706     0.0496
    ##  4 Crew  No           0    885     0     
    ##  5 1st   No           0    325     0     
    ##  6 2nd   No           0    285     0     
    ##  7 3rd   No          17    706     0.0241
    ##  8 Crew  No           0    885     0     
    ##  9 1st   No         118    325     0.363 
    ## 10 2nd   No         154    285     0.540 
    ## # ℹ 22 more rows
…
``` r
df_prop4 <-
  df_titanic %>%
  select(Sex, Survived, n)%>%
  group_by(Sex) %>%
  mutate(
    Total4 = sum(n),
    Proportion = n / Total4
  ) %>%
  ungroup()
df_prop4
```

    ## # A tibble: 32 × 5
    ##    Sex    Survived     n Total4 Proportion
    ##    <chr>  <chr>    <dbl>  <dbl>      <dbl>
    ##  1 Male   No           0   1731     0     
    ##  2 Male   No           0   1731     0     
    ##  3 Male   No          35   1731     0.0202
    ##  4 Male   No           0   1731     0     
    ##  5 Female No           0    470     0     
    ##  6 Female No           0    470     0     
    ##  7 Female No          17    470     0.0362
    ##  8 Female No           0    470     0     
    ##  9 Male   No         118   1731     0.0682
    ## 10 Male   No         154   1731     0.0890
    ## # ℹ 22 more rows
…
