…
``` r
## TASK: Tidy `df_stang`
df_stang_long <-
  df_stang %>% 
  pivot_longer(
    names_to = c(".value", "angle"),                       #keeps the values and the first part of the name
    names_sep = "_",                                             #says what to separate the name by
    cols = c("E_00", "E_45", "E_90", "nu_00", "nu_45", "nu_90")  #what columns to take from
  ) %>% 
  mutate(angle = as.integer(angle)) %>%                    #ensures all angles are integers
  filter(E >= 0, nu >= 0)                                  #filters out invalid values
df_stang_long
```

    ## # A tibble: 26 × 5
    ##    thick alloy   angle     E    nu
    ##    <dbl> <chr>   <int> <dbl> <dbl>
    ##  1 0.022 al_24st     0 10600 0.321
    ##  2 0.022 al_24st    45 10700 0.329
    ##  3 0.022 al_24st    90 10500 0.31 
    ##  4 0.022 al_24st     0 10600 0.323
    ##  5 0.022 al_24st    45 10500 0.331
    ##  6 0.022 al_24st    90 10700 0.323
    ##  7 0.032 al_24st     0 10400 0.329
    ##  8 0.032 al_24st    45 10400 0.318
    ##  9 0.032 al_24st    90 10300 0.322
    ## 10 0.032 al_24st     0 10300 0.319
    ## # ℹ 16 more rows
…
