…
    ## Rows: 1,704
    ## Columns: 6
    ## $ country   <fct> "Afghanistan", "Afghanistan", "Afghanistan", "Afghanistan", …
    ## $ continent <fct> Asia, Asia, Asia, Asia, Asia, Asia, Asia, Asia, Asia, Asia, …
    ## $ year      <int> 1952, 1957, 1962, 1967, 1972, 1977, 1982, 1987, 1992, 1997, …
    ## $ lifeExp   <dbl> 28.801, 30.332, 31.997, 34.020, 36.088, 38.438, 39.854, 40.8…
    ## $ pop       <int> 8425333, 9240934, 10267083, 11537966, 13079460, 14880372, 12…
    ## $ gdpPercap <dbl> 779.4453, 820.8530, 853.1007, 836.1971, 739.9811, 786.1134, …

``` r
gapminder %>% 
  distinct(country)
```

    ## # A tibble: 142 × 1
    ##    country    
    ##    <fct>      
    ##  1 Afghanistan
    ##  2 Albania    
    ##  3 Algeria    
    ##  4 Angola     
    ##  5 Argentina  
    ##  6 Australia  
    ##  7 Austria    
    ##  8 Bahrain    
    ##  9 Bangladesh 
    ## 10 Belgium    
    ## # ℹ 132 more rows
…
    ## # A tibble: 2 × 1
    ##   country    
    ##   <fct>      
    ## 1 Australia  
    ## 2 New Zealand

``` r
gapminder %>% 
  filter(continent == "Africa") %>% 
  distinct(country)
```

    ## # A tibble: 52 × 1
    ##    country                 
    ##    <fct>                   
    ##  1 Algeria                 
    ##  2 Angola                  
    ##  3 Benin                   
    ##  4 Botswana                
    ##  5 Burkina Faso            
    ##  6 Burundi                 
    ##  7 Cameroon                
    ##  8 Central African Republic
    ##  9 Chad                    
    ## 10 Comoros                 
    ## # ℹ 42 more rows

``` r
gapminder %>% 
  filter(continent == "Asia") %>% 
  distinct(country)
```

    ## # A tibble: 33 × 1
    ##    country         
    ##    <fct>           
    ##  1 Afghanistan     
    ##  2 Bahrain         
    ##  3 Bangladesh      
    ##  4 Cambodia        
    ##  5 China           
    ##  6 Hong Kong, China
    ##  7 India           
    ##  8 Indonesia       
    ##  9 Iran            
    ## 10 Iraq            
    ## # ℹ 23 more rows

``` r
gapminder %>% 
  filter(continent == "Americas") %>% 
  distinct(country)
```

    ## # A tibble: 25 × 1
    ##    country           
    ##    <fct>             
    ##  1 Argentina         
    ##  2 Bolivia           
    ##  3 Brazil            
    ##  4 Canada            
    ##  5 Chile             
    ##  6 Colombia          
    ##  7 Costa Rica        
    ##  8 Cuba              
    ##  9 Dominican Republic
    ## 10 Ecuador           
    ## # ℹ 15 more rows

``` r
gapminder %>% 
  filter(continent == "Europe") %>% 
  distinct(country)
```

    ## # A tibble: 30 × 1
    ##    country               
    ##    <fct>                 
    ##  1 Albania               
    ##  2 Austria               
    ##  3 Belgium               
    ##  4 Bosnia and Herzegovina
    ##  5 Bulgaria              
    ##  6 Croatia               
    ##  7 Czech Republic        
    ##  8 Denmark               
    ##  9 Finland               
    ## 10 France                
    ## # ℹ 20 more rows
…
