…
``` r
df_pop <-
  df_pop %>% 
  select(-"X5")
df_pop
```

    ## # A tibble: 3,220 × 4
    ##    id            `Geographic Area Name` `Estimate!!Total` Margin of Error!!Tot…¹
    ##    <chr>         <chr>                              <dbl> <chr>                 
    ##  1 0500000US010… Autauga County, Alaba…             55200 *****                 
    ##  2 0500000US010… Baldwin County, Alaba…            208107 *****                 
    ##  3 0500000US010… Barbour County, Alaba…             25782 *****                 
    ##  4 0500000US010… Bibb County, Alabama               22527 *****                 
    ##  5 0500000US010… Blount County, Alabama             57645 *****                 
    ##  6 0500000US010… Bullock County, Alaba…             10352 *****                 
    ##  7 0500000US010… Butler County, Alabama             20025 *****                 
    ##  8 0500000US010… Calhoun County, Alaba…            115098 *****                 
    ##  9 0500000US010… Chambers County, Alab…             33826 *****                 
    ## 10 0500000US010… Cherokee County, Alab…             25853 *****                 
    ## # ℹ 3,210 more rows
    ## # ℹ abbreviated name: ¹​`Margin of Error!!Total`
…
### **q3** Process the `id` column of `df_pop` to create a `fips` column.

``` r
## TASK: Create a `fips` column by extracting the county code
#reference exercise 23 strings to look at regex
df_q3 <- 
  df_pop %>% 
  mutate(fips = str_extract(string = id, pattern = "\\d{5}$"))
df_q3
```

    ## # A tibble: 3,220 × 5
    ##    id      `Geographic Area Name` `Estimate!!Total` Margin of Error!!Tot…¹ fips 
    ##    <chr>   <chr>                              <dbl> <chr>                  <chr>
    ##  1 050000… Autauga County, Alaba…             55200 *****                  01001
    ##  2 050000… Baldwin County, Alaba…            208107 *****                  01003
    ##  3 050000… Barbour County, Alaba…             25782 *****                  01005
    ##  4 050000… Bibb County, Alabama               22527 *****                  01007
    ##  5 050000… Blount County, Alabama             57645 *****                  01009
    ##  6 050000… Bullock County, Alaba…             10352 *****                  01011
    ##  7 050000… Butler County, Alabama             20025 *****                  01013
    ##  8 050000… Calhoun County, Alaba…            115098 *****                  01015
    ##  9 050000… Chambers County, Alab…             33826 *****                  01017
    ## 10 050000… Cherokee County, Alab…             25853 *****                  01019
    ## # ℹ 3,210 more rows
    ## # ℹ abbreviated name: ¹​`Margin of Error!!Total`
…
### **q4** Join `df_covid` with `df_q3` by the `fips` column. Use the proper type of join to preserve *only* the rows in `df_covid`.

``` r
## TASK: Join df_covid and df_q3 by fips.
df_q4 <-
  df_covid %>% 
  left_join(
    df_q3,
    by = "fips"
  )
df_q4
```

    ## # A tibble: 2,502,832 × 10
    ##    date       county      state  fips  cases deaths id    `Geographic Area Name`
    ##    <date>     <chr>       <chr>  <chr> <dbl>  <dbl> <chr> <chr>                 
    ##  1 2020-01-21 Snohomish   Washi… 53061     1      0 0500… Snohomish County, Was…
    ##  2 2020-01-22 Snohomish   Washi… 53061     1      0 0500… Snohomish County, Was…
    ##  3 2020-01-23 Snohomish   Washi… 53061     1      0 0500… Snohomish County, Was…
    ##  4 2020-01-24 Cook        Illin… 17031     1      0 0500… Cook County, Illinois 
    ##  5 2020-01-24 Snohomish   Washi… 53061     1      0 0500… Snohomish County, Was…
    ##  6 2020-01-25 Orange      Calif… 06059     1      0 0500… Orange County, Califo…
    ##  7 2020-01-25 Cook        Illin… 17031     1      0 0500… Cook County, Illinois 
    ##  8 2020-01-25 Snohomish   Washi… 53061     1      0 0500… Snohomish County, Was…
    ##  9 2020-01-26 Maricopa    Arizo… 04013     1      0 0500… Maricopa County, Ariz…
    ## 10 2020-01-26 Los Angeles Calif… 06037     1      0 0500… Los Angeles County, C…
    ## # ℹ 2,502,822 more rows
    ## # ℹ 2 more variables: `Estimate!!Total` <dbl>, `Margin of Error!!Total` <chr>
…
df_data <-
  df_q4 %>%
  select(
    date,
    county,
    state,
    fips,
    cases,
    deaths,
    population = `Estimate!!Total`
  )
df_data
```

    ## # A tibble: 2,502,832 × 7
    ##    date       county      state      fips  cases deaths population
    ##    <date>     <chr>       <chr>      <chr> <dbl>  <dbl>      <dbl>
    ##  1 2020-01-21 Snohomish   Washington 53061     1      0     786620
    ##  2 2020-01-22 Snohomish   Washington 53061     1      0     786620
    ##  3 2020-01-23 Snohomish   Washington 53061     1      0     786620
    ##  4 2020-01-24 Cook        Illinois   17031     1      0    5223719
    ##  5 2020-01-24 Snohomish   Washington 53061     1      0     786620
    ##  6 2020-01-25 Orange      California 06059     1      0    3164182
    ##  7 2020-01-25 Cook        Illinois   17031     1      0    5223719
    ##  8 2020-01-25 Snohomish   Washington 53061     1      0     786620
    ##  9 2020-01-26 Maricopa    Arizona    04013     1      0    4253913
    ## 10 2020-01-26 Los Angeles California 06037     1      0   10098052
    ## # ℹ 2,502,822 more rows
…
