…
``` r
df_pop <-
  df_pop %>% 
  select(-"...5")
df_pop
```

    ## # A tibble: 3,220 × 4
    ##    Geography   `Geographic Area Name` population_estimate Margin of Error!!Tot…¹
    ##    <chr>       <chr>                                <dbl> <chr>                 
    ##  1 0500000US0… Autauga County, Alaba…               55200 *****                 
    ##  2 0500000US0… Baldwin County, Alaba…              208107 *****                 
    ##  3 0500000US0… Barbour County, Alaba…               25782 *****                 
    ##  4 0500000US0… Bibb County, Alabama                 22527 *****                 
    ##  5 0500000US0… Blount County, Alabama               57645 *****                 
    ##  6 0500000US0… Bullock County, Alaba…               10352 *****                 
    ##  7 0500000US0… Butler County, Alabama               20025 *****                 
    ##  8 0500000US0… Calhoun County, Alaba…              115098 *****                 
    ##  9 0500000US0… Chambers County, Alab…               33826 *****                 
    ## 10 0500000US0… Cherokee County, Alab…               25853 *****                 
    ## # ℹ 3,210 more rows
    ## # ℹ abbreviated name: ¹​`Margin of Error!!Total`
…
    ## Rows: 3220 Columns: 243
    ## ── Column specification ────────────────────────────────────────────────────────
    ## Delimiter: ","
    ## chr  (66): Geography, Geographic Area Name, Estimate!!Median income (dollars...
    ## dbl (176): Estimate!!Number!!HOUSEHOLD INCOME BY RACE AND HISPANIC OR LATINO...
    ## lgl   (1): ...243
    ## 
    ## ℹ Use `spec()` to retrieve the full column specification for this data.
    ## ℹ Specify the column types or set `show_col_types = FALSE` to quiet this message.

``` r
df_income
```

    ## # A tibble: 3,220 × 243
    ##    Geography      `Geographic Area Name`   Estimate!!Number!!HOUSEHOLD INCOME …¹
    ##    <chr>          <chr>                                                    <dbl>
    ##  1 0500000US01001 Autauga County, Alabama                                  21115
    ##  2 0500000US01003 Baldwin County, Alabama                                  78622
    ##  3 0500000US01005 Barbour County, Alabama                                   9186
    ##  4 0500000US01007 Bibb County, Alabama                                      6840
    ##  5 0500000US01009 Blount County, Alabama                                   20600
    ##  6 0500000US01011 Bullock County, Alabama                                   3609
    ##  7 0500000US01013 Butler County, Alabama                                    6708
    ##  8 0500000US01015 Calhoun County, Alabama                                  45033
    ##  9 0500000US01017 Chambers County, Alabama                                 13516
    ## 10 0500000US01019 Cherokee County, Alabama                                 10606
    ## # ℹ 3,210 more rows
    ## # ℹ abbreviated name:
    ## #   ¹​`Estimate!!Number!!HOUSEHOLD INCOME BY RACE AND HISPANIC OR LATINO ORIGIN OF HOUSEHOLDER!!Households`
    ## # ℹ 240 more variables:
    ## #   `Margin of Error!!Number MOE!!HOUSEHOLD INCOME BY RACE AND HISPANIC OR LATINO ORIGIN OF HOUSEHOLDER!!Households` <dbl>,
    ## #   `Estimate!!Number!!HOUSEHOLD INCOME BY RACE AND HISPANIC OR LATINO ORIGIN OF HOUSEHOLDER!!Households!!One race--!!White` <dbl>,
    ## #   `Margin of Error!!Number MOE!!HOUSEHOLD INCOME BY RACE AND HISPANIC OR LATINO ORIGIN OF HOUSEHOLDER!!Households!!One race--!!White` <dbl>, …
…
    ## Rows: 16,100
    ## Columns: 5
    ## $ id                   <chr> "0500000US01001", "0500000US01001", "0500000US010…
    ## $ geographic_area_name <chr> "Autauga County, Alabama", "Autauga County, Alaba…
    ## $ category             <chr> "2-person families", "3-person families", "4-pers…
    ## $ income_estimate      <dbl> 64947, 80172, 85455, 88601, 103787, 63975, 79390,…
    ## $ income_moe           <dbl> 6663, 14181, 10692, 20739, 12387, 2297, 8851, 519…

``` r
df_q3 
```

    ## # A tibble: 16,100 × 5
    ##    id             geographic_area_name    category    income_estimate income_moe
    ##    <chr>          <chr>                   <chr>                 <dbl>      <dbl>
    ##  1 0500000US01001 Autauga County, Alabama 2-person f…           64947       6663
    ##  2 0500000US01001 Autauga County, Alabama 3-person f…           80172      14181
    ##  3 0500000US01001 Autauga County, Alabama 4-person f…           85455      10692
    ##  4 0500000US01001 Autauga County, Alabama 5-person f…           88601      20739
    ##  5 0500000US01001 Autauga County, Alabama 6-person f…          103787      12387
    ##  6 0500000US01003 Baldwin County, Alabama 2-person f…           63975       2297
    ##  7 0500000US01003 Baldwin County, Alabama 3-person f…           79390       8851
    ##  8 0500000US01003 Baldwin County, Alabama 4-person f…           88458       5199
    ##  9 0500000US01003 Baldwin County, Alabama 5-person f…           91259       7011
    ## 10 0500000US01003 Baldwin County, Alabama 6-person f…           69609      23175
    ## # ℹ 16,090 more rows
…
df_q4 <-
  df_q3 %>% 
  mutate(
    income_SE = income_moe / 1.645,
    income_lo = income_estimate - q * income_SE,
    income_hi = income_estimate + q * income_SE,
    income_CV = income_SE / income_estimate
  )
df_q4
```

    ## # A tibble: 16,100 × 9
    ##    id         geographic_area_name category income_estimate income_moe income_SE
    ##    <chr>      <chr>                <chr>              <dbl>      <dbl>     <dbl>
    ##  1 0500000US… Autauga County, Ala… 2-perso…           64947       6663     4050.
    ##  2 0500000US… Autauga County, Ala… 3-perso…           80172      14181     8621.
    ##  3 0500000US… Autauga County, Ala… 4-perso…           85455      10692     6500.
    ##  4 0500000US… Autauga County, Ala… 5-perso…           88601      20739    12607.
    ##  5 0500000US… Autauga County, Ala… 6-perso…          103787      12387     7530.
    ##  6 0500000US… Baldwin County, Ala… 2-perso…           63975       2297     1396.
    ##  7 0500000US… Baldwin County, Ala… 3-perso…           79390       8851     5381.
    ##  8 0500000US… Baldwin County, Ala… 4-perso…           88458       5199     3160.
    ##  9 0500000US… Baldwin County, Ala… 5-perso…           91259       7011     4262.
    ## 10 0500000US… Baldwin County, Ala… 6-perso…           69609      23175    14088.
    ## # ℹ 16,090 more rows
    ## # ℹ 3 more variables: income_lo <dbl>, income_hi <dbl>, income_CV <dbl>
…
``` r
## TODO: Join df_q4 and df_pop by the appropriate column

df_data <- 
  df_q4 %>%
  left_join(
    df_pop %>%
      select(Geography, population_estimate),  # Select only the relevant columns from df_pop
    by = c("id" = "Geography")
  )
df_data
```

    ## # A tibble: 16,100 × 10
    ##    id         geographic_area_name category income_estimate income_moe income_SE
    ##    <chr>      <chr>                <chr>              <dbl>      <dbl>     <dbl>
    ##  1 0500000US… Autauga County, Ala… 2-perso…           64947       6663     4050.
    ##  2 0500000US… Autauga County, Ala… 3-perso…           80172      14181     8621.
    ##  3 0500000US… Autauga County, Ala… 4-perso…           85455      10692     6500.
    ##  4 0500000US… Autauga County, Ala… 5-perso…           88601      20739    12607.
    ##  5 0500000US… Autauga County, Ala… 6-perso…          103787      12387     7530.
    ##  6 0500000US… Baldwin County, Ala… 2-perso…           63975       2297     1396.
    ##  7 0500000US… Baldwin County, Ala… 3-perso…           79390       8851     5381.
    ##  8 0500000US… Baldwin County, Ala… 4-perso…           88458       5199     3160.
    ##  9 0500000US… Baldwin County, Ala… 5-perso…           91259       7011     4262.
    ## 10 0500000US… Baldwin County, Ala… 6-perso…           69609      23175    14088.
    ## # ℹ 16,090 more rows
    ## # ℹ 4 more variables: income_lo <dbl>, income_hi <dbl>, income_CV <dbl>,
    ## #   population_estimate <dbl>
…
