…
<!-- -------------------------------------------------- -->

### **q1** Go to the [Stanford Open Policing Project](https://openpolicing.stanford.edu/data/) page and download the Massachusetts State Police records in `Rds` format. Move the data to your `data` folder and match the `filename` to load the data.

*Note*: An `Rds` file is an R-specific file format. The function
`readRDS` will read these files.

``` r
## TODO: Download the data, move to your data folder, and load it
filename <- "./data/yg821jf8611_ma_statewide_2020_04_01.rds"
df_data <- readRDS(filename)
df_data
```

    ## # A tibble: 3,416,238 × 24
    ##    raw_row_number date       location      county_name  subject_age subject_race
    ##    <chr>          <date>     <chr>         <chr>              <int> <fct>       
    ##  1 1              2007-06-06 MIDDLEBOROUGH Plymouth Co…          33 white       
    ##  2 2              2007-06-07 SEEKONK       Bristol Cou…          36 white       
    ##  3 3              2007-06-07 MEDFORD       Middlesex C…          56 white       
    ##  4 4              2007-06-07 MEDFORD       Middlesex C…          37 white       
    ##  5 5              2007-06-07 EVERETT       Middlesex C…          22 hispanic    
    ##  6 6              2007-06-07 MEDFORD       Middlesex C…          34 white       
    ##  7 7              2007-06-07 SOMERVILLE    Middlesex C…          54 hispanic    
    ##  8 8              2007-06-07 HOPKINTON     Middlesex C…          31 hispanic    
    ##  9 9              2007-06-07 SOMERVILLE    Middlesex C…          21 white       
    ## 10 10             2007-06-06 BARNSTABLE    Barnstable …          56 white       
    ## # ℹ 3,416,228 more rows
    ## # ℹ 18 more variables: subject_sex <fct>, type <fct>, arrest_made <lgl>,
    ## #   citation_issued <lgl>, warning_issued <lgl>, outcome <fct>,
    ## #   contraband_found <lgl>, contraband_drugs <lgl>, contraband_weapons <lgl>,
    ## #   contraband_alcohol <lgl>, contraband_other <lgl>, frisk_performed <lgl>,
    ## #   search_conducted <lgl>, search_basis <fct>, reason_for_stop <chr>,
    ## #   vehicle_type <chr>, vehicle_registration_state <fct>, raw_Race <chr>
…
# List of subject-level factors to compare
factors <- c("subject_age", "subject_race", "subject_sex", "vehicle_type")

# Compute summaries for each factor
arrest_summaries <- lapply(factors, function(f) {
  arrest_rate_by(df_race_compare, f) %>% mutate(factor = f)
 })

# View the arrest_rates
arrest_summaries
```

    ## [[1]]
    ## # A tibble: 86 × 5
    ##    subject_age n_cases n_arrests arrest_rate factor     
    ##          <int>   <int>     <int>       <dbl> <chr>      
    ##  1          15     474        44      0.0928 subject_age
    ##  2          16    2049       105      0.0512 subject_age
    ##  3          14     306        15      0.0490 subject_age
    ##  4          28  103177      3850      0.0373 subject_age
    ##  5          31   86418      3143      0.0364 subject_age
    ##  6          29   97563      3512      0.0360 subject_age
    ##  7          27  107790      3865      0.0359 subject_age
    ##  8          30   92693      3301      0.0356 subject_age
    ##  9          26  114595      4011      0.0350 subject_age
    ## 10          33   77540      2709      0.0349 subject_age
    ## # ℹ 76 more rows
    ## 
    ## [[2]]
…
